My Data Analysis Portfolio - Machine Learning
…
Decision Tree Model Specification (regression)

Main Arguments:
  cost_complexity = tune()
  tree_depth = tune()

Computational engine: rpart 

tree_grid <- grid_regular(cost_complexity(),
                          tree_depth(),
                          levels = 5)
tree_grid

# A tibble: 25 × 2
   cost_complexity tree_depth
             <dbl>      <int>
 1    0.0000000001          1
 2    0.0000000178          1
 3    0.00000316            1
 4    0.000562              1
 5    0.1                   1
 6    0.0000000001          4
 7    0.0000000178          4
 8    0.00000316            4
 9    0.000562              4
10    0.1                   4
# ℹ 15 more rows
…
There were issues with some computations:

  - Warning(s) x10: There was 1 warning in `dplyr::summarise()`. ℹ In argument: `.est...

Run `show_notes(.Last.tune.result)` for more information.

tree_res %>%
  collect_metrics()

# A tibble: 50 × 8
   cost_complexity tree_depth .metric .estimator     mean     n std_err .config 
             <dbl>      <int> <chr>   <chr>         <dbl> <int>   <dbl> <chr>   
 1    0.0000000001          1 rmse    standard     1.19      10  0.0517 Preproc…
 2    0.0000000001          1 rsq     standard     0.0550    10  0.0176 Preproc…
 3    0.0000000178          1 rmse    standard     1.19      10  0.0517 Preproc…
 4    0.0000000178          1 rsq     standard     0.0550    10  0.0176 Preproc…
 5    0.00000316            1 rmse    standard     1.19      10  0.0517 Preproc…
 6    0.00000316            1 rsq     standard     0.0550    10  0.0176 Preproc…
 7    0.000562              1 rmse    standard     1.19      10  0.0517 Preproc…
 8    0.000562              1 rsq     standard     0.0550    10  0.0176 Preproc…
 9    0.1                   1 rmse    standard     1.20      10  0.0506 Preproc…
10    0.1                   1 rsq     standard   NaN          0 NA      Preproc…
# ℹ 40 more rows
…
rf_best <-
  rf_res %>%
  select_best(metric = "rmse")
rf_best

# A tibble: 1 × 3
   mtry min_n .config              
  <int> <int> <chr>                
1     5    35 Preprocessor1_Model12

rf_res %>%
  collect_predictions()

# A tibble: 5,550 × 7
   id         .pred  .row  mtry min_n BodyTemp .config              
   <chr>      <dbl> <int> <int> <int>    <dbl> <chr>                
 1 validation  99.1     2    14     7    100.  Preprocessor1_Model01
 2 validation 100.     11    14     7     98.2 Preprocessor1_Model01
 3 validation  98.3    14    14     7    102.  Preprocessor1_Model01
 4 validation  98.7    19    14     7     98.5 Preprocessor1_Model01
 5 validation  99.3    20    14     7     98.2 Preprocessor1_Model01
 6 validation  99.8    26    14     7    100   Preprocessor1_Model01
 7 validation  99.4    27    14     7     99.5 Preprocessor1_Model01
 8 validation  99.2    28    14     7    101.  Preprocessor1_Model01
 9 validation  99.0    29    14     7     99.7 Preprocessor1_Model01
10 validation  99.4    30    14     7     98.9 Preprocessor1_Model01
# ℹ 5,540 more rows
…
