My Data Analysis Portfolio - Model Evaluation
…
── Model ───────────────────────────────────────────────────────────────────────
Logistic Regression Model Specification (classification)

Computational engine: glm 

## Fit train data
flu_fit <- flu_wflow %>%
  fit(data = train_data)

flu_fit %>%
  extract_fit_parsnip() %>%
  tidy()

# A tibble: 38 × 5
   term                 estimate std.error statistic p.value
   <chr>                   <dbl>     <dbl>     <dbl>   <dbl>
 1 (Intercept)            9.58       9.78     0.980   0.327 
 2 SwollenLymphNodesYes  -0.156      0.226   -0.688   0.492 
 3 ChestCongestionYes     0.258      0.250    1.03    0.301 
 4 ChillsSweatsYes        0.274      0.346    0.793   0.428 
 5 NasalCongestionYes     0.545      0.300    1.82    0.0691
 6 CoughYNYes             0.163      0.632    0.258   0.796 
 7 SneezeYes             -0.0105     0.245   -0.0427  0.966 
 8 FatigueYes             0.702      0.457    1.54    0.125 
 9 SubjectiveFeverYes     0.320      0.263    1.21    0.225 
10 HeadacheYes            0.474      0.339    1.40    0.162 
# … with 28 more rows

## Predict
predict(flu_fit, test_data)

Warning in predict.lm(object, newdata, se.fit, scale = 1, type = if (type == :
prediction from a rank-deficient fit may be misleading

# A tibble: 183 × 1
   .pred_class
   <fct>      
 1 No         
 2 Yes        
 3 No         
 4 No         
 5 Yes        
 6 No         
 7 Yes        
 8 Yes        
 9 Yes        
10 No         
# … with 173 more rows

## Augment
flu_aug <- augment(flu_fit, test_data)

Warning in predict.lm(object, newdata, se.fit, scale = 1, type = if (type == :
prediction from a rank-deficient fit may be misleading

Warning in predict.lm(object, newdata, se.fit, scale = 1, type = if (type == :
prediction from a rank-deficient fit may be misleading

flu_aug %>%
  select(Nausea, .pred_No, .pred_Yes)

# A tibble: 183 × 3
   Nausea .pred_No .pred_Yes
   <fct>     <dbl>     <dbl>
 1 Yes      0.774      0.226
 2 Yes      0.0292     0.971
 3 Yes      0.849      0.151
 4 No       0.640      0.360
 5 Yes      0.165      0.835
 6 No       0.790      0.210
 7 Yes      0.375      0.625
 8 Yes      0.0636     0.936
 9 Yes      0.253      0.747
10 Yes      0.751      0.249
# … with 173 more rows
…
flu_fit_rn %>%
  extract_fit_parsnip() %>%
  tidy()

# A tibble: 2 × 5
  term         estimate std.error statistic    p.value
  <chr>           <dbl>     <dbl>     <dbl>      <dbl>
1 (Intercept)    -0.772     0.173     -4.47 0.00000794
2 RunnyNoseYes    0.250     0.202      1.24 0.216     

## Predict
predict(flu_fit_rn, test_data)

# A tibble: 183 × 1
   .pred_class
   <fct>      
 1 No         
 2 No         
 3 No         
 4 No         
 5 No         
 6 No         
 7 No         
 8 No         
 9 No         
10 No         
# … with 173 more rows

## Augment
flu_aug_rn <- augment(flu_fit_rn, test_data)

flu_aug_rn %>%
  select(Nausea, .pred_No, .pred_Yes)

# A tibble: 183 × 3
   Nausea .pred_No .pred_Yes
   <fct>     <dbl>     <dbl>
 1 Yes       0.628     0.372
 2 Yes       0.684     0.316
 3 Yes       0.628     0.372
 4 No        0.628     0.372
 5 Yes       0.628     0.372
 6 No        0.628     0.372
 7 Yes       0.628     0.372
 8 Yes       0.684     0.316
 9 Yes       0.684     0.316
10 Yes       0.628     0.372
# … with 173 more rows
…
# Fitting/Training
linear_fit <- linear_workflow %>%
  fit(data = train_data)

Multivariate Model Evaluation

Prediction + RMSE

# Fit Characteristics
linear_fit %>% extract_fit_parsnip() %>% tidy()

# A tibble: 38 × 5
   term                 estimate std.error statistic  p.value
   <chr>                   <dbl>     <dbl>     <dbl>    <dbl>
 1 (Intercept)            97.7       0.353    277.   0       
 2 SwollenLymphNodesYes   -0.154     0.102     -1.51 0.130   
 3 ChestCongestionYes      0.119     0.107      1.11 0.267   
 4 ChillsSweatsYes         0.299     0.143      2.09 0.0373  
 5 NasalCongestionYes     -0.190     0.130     -1.46 0.145   
 6 CoughYNYes              0.357     0.270      1.32 0.187   
 7 SneezeYes              -0.342     0.109     -3.15 0.00173 
 8 FatigueYes              0.305     0.173      1.76 0.0789  
 9 SubjectiveFeverYes      0.384     0.115      3.35 0.000862
10 HeadacheYes             0.138     0.137      1.01 0.314   
# … with 28 more rows

# Prediction
predict(linear_fit, test_data)

Warning in predict.lm(object = object$fit, newdata = new_data, type =
"response"): prediction from a rank-deficient fit may be misleading

# A tibble: 146 × 1
   .pred
   <dbl>
 1  98.6
 2  98.9
 3  98.4
 4  99.0
 5  99.3
 6  98.8
 7  99.0
 8  99.5
 9  99.4
10  98.8
# … with 136 more rows
…
Prediction + RMSE

# Fit Characteristics
linear_fit %>% extract_fit_parsnip() %>% tidy()

# A tibble: 2 × 5
  term         estimate std.error statistic p.value
  <chr>           <dbl>     <dbl>     <dbl>   <dbl>
1 (Intercept)    99.1      0.0923   1074.    0     
2 RunnyNoseYes   -0.219    0.109      -2.02  0.0440

# Prediction
predict(linear_fit, test_data)

# A tibble: 146 × 1
   .pred
   <dbl>
 1  98.9
 2  98.9
 3  98.9
 4  98.9
 5  98.9
 6  99.1
 7  98.9
 8  98.9
 9  99.1
10  98.9
# … with 136 more rows
…
