My Data Analysis Portfolio - Tidy Tuesday Exercise
…
Decision Tree Model Specification (regression)

Main Arguments:
  cost_complexity = tune()
  tree_depth = tune()

Computational engine: rpart 

tree_grid <- grid_regular(cost_complexity(),
                          tree_depth(),
                          levels = 5)
tree_grid

# A tibble: 25 × 2
   cost_complexity tree_depth
             <dbl>      <int>
 1    0.0000000001          1
 2    0.0000000178          1
 3    0.00000316            1
 4    0.000562              1
 5    0.1                   1
 6    0.0000000001          4
 7    0.0000000178          4
 8    0.00000316            4
 9    0.000562              4
10    0.1                   4
# ℹ 15 more rows
…
tree_res %>%
  collect_metrics()

# A tibble: 50 × 8
   cost_complexity tree_depth .metric .estimator      mean     n std_err .config
             <dbl>      <int> <chr>   <chr>          <dbl> <int>   <dbl> <chr>  
 1    0.0000000001          1 rmse    standard     4.02e+8    10 1.68e+7 Prepro…
 2    0.0000000001          1 rsq     standard     9.82e-1    10 3.49e-3 Prepro…
 3    0.0000000178          1 rmse    standard     4.02e+8    10 1.68e+7 Prepro…
 4    0.0000000178          1 rsq     standard     9.82e-1    10 3.49e-3 Prepro…
 5    0.00000316            1 rmse    standard     4.02e+8    10 1.68e+7 Prepro…
 6    0.00000316            1 rsq     standard     9.82e-1    10 3.49e-3 Prepro…
 7    0.000562              1 rmse    standard     4.02e+8    10 1.68e+7 Prepro…
 8    0.000562              1 rsq     standard     9.82e-1    10 3.49e-3 Prepro…
 9    0.1                   1 rmse    standard     4.02e+8    10 1.68e+7 Prepro…
10    0.1                   1 rsq     standard     9.82e-1    10 3.49e-3 Prepro…
# ℹ 40 more rows
…
lr_res <- lr_workflow %>%
  tune_grid(resamples = folds,
            grid = lr_reg_grid,
            control = control_grid(verbose = FALSE, save_pred = TRUE),
            metrics = metric_set(rmse))
lr_res %>%
  collect_metrics()

# A tibble: 30 × 7
    penalty .metric .estimator       mean     n   std_err .config              
      <dbl> <chr>   <chr>           <dbl> <int>     <dbl> <chr>                
 1 0.0001   rmse    standard   131031735.     4 18627660. Preprocessor1_Model01
 2 0.000127 rmse    standard   131031735.     4 18627660. Preprocessor1_Model02
 3 0.000161 rmse    standard   131031735.     4 18627660. Preprocessor1_Model03
 4 0.000204 rmse    standard   131031735.     4 18627660. Preprocessor1_Model04
 5 0.000259 rmse    standard   131031735.     4 18627660. Preprocessor1_Model05
 6 0.000329 rmse    standard   131031735.     4 18627660. Preprocessor1_Model06
 7 0.000418 rmse    standard   131031735.     4 18627660. Preprocessor1_Model07
 8 0.000530 rmse    standard   131031735.     4 18627660. Preprocessor1_Model08
 9 0.000672 rmse    standard   131031735.     4 18627660. Preprocessor1_Model09
10 0.000853 rmse    standard   131031735.     4 18627660. Preprocessor1_Model10
# ℹ 20 more rows
…
See `?dials::finalize` or `?dials::update.parameters` for more information.

rf_res <- rf_workflow %>%
  tune_grid(resamples = folds,
            grid = 25,
            control = control_grid(save_pred = TRUE),
            metrics = metric_set(rmse))

i Creating pre-processing data to finalize unknown parameter: mtry

rf_res %>%
  collect_metrics()

# A tibble: 25 × 8
    mtry min_n .metric .estimator       mean     n   std_err .config            
   <int> <int> <chr>   <chr>           <dbl> <int>     <dbl> <chr>              
 1     2    20 rmse    standard   184136552.     4 15980847. Preprocessor1_Mode…
 2     2     2 rmse    standard   160135114.     4 13061006. Preprocessor1_Mode…
 3     2    10 rmse    standard   159128777.     4 14853795. Preprocessor1_Mode…
 4     2    14 rmse    standard   166884795.     4 15093923. Preprocessor1_Mode…
 5     2    19 rmse    standard   181725006.     4 16379074. Preprocessor1_Mode…
 6     2     8 rmse    standard   158312647.     4 14000649. Preprocessor1_Mode…
 7     2     4 rmse    standard   160354459.     4 13206522. Preprocessor1_Mode…
 8     1    30 rmse    standard   577260881.     4 17624263. Preprocessor1_Mode…
 9     3    33 rmse    standard   200492969.     4 16892437. Preprocessor1_Mode…
10     2    23 rmse    standard   191628902.     4 16360888. Preprocessor1_Mode…
# ℹ 15 more rows
…
p_res <- p_workflow %>%
  tune_grid(resamples = folds,
            grid = p_reg_grid,
            control = control_grid(verbose = FALSE, save_pred = TRUE),
            metrics = metric_set(rmse))
p_res %>%
  collect_metrics()

# A tibble: 30 × 7
    penalty .metric .estimator       mean     n   std_err .config              
      <dbl> <chr>   <chr>           <dbl> <int>     <dbl> <chr>                
 1 0.0001   rmse    standard   131031735.     4 18627660. Preprocessor1_Model01
 2 0.000127 rmse    standard   131031735.     4 18627660. Preprocessor1_Model02
 3 0.000161 rmse    standard   131031735.     4 18627660. Preprocessor1_Model03
 4 0.000204 rmse    standard   131031735.     4 18627660. Preprocessor1_Model04
 5 0.000259 rmse    standard   131031735.     4 18627660. Preprocessor1_Model05
 6 0.000329 rmse    standard   131031735.     4 18627660. Preprocessor1_Model06
 7 0.000418 rmse    standard   131031735.     4 18627660. Preprocessor1_Model07
 8 0.000530 rmse    standard   131031735.     4 18627660. Preprocessor1_Model08
 9 0.000672 rmse    standard   131031735.     4 18627660. Preprocessor1_Model09
10 0.000853 rmse    standard   131031735.     4 18627660. Preprocessor1_Model10
# ℹ 20 more rows
…
